Index,VesselObjectID,LogType,EngineIndex
1,9804904,ME,1
2,9810056,ME,1
3,9811000,ME,1
4,9812121,ME,1
5,9825427,ME,1
6,9825439,ME,1
7,9832121,ME,1
8,9836359,ME,1
9,9841938,ME,1
10,9841940,ME,1
11,9842712,ME,1
12,9842724,ME,1
13,9844540,ME,1
14,9844576,ME,1
15,9844588,ME,1
16,9851804,ME,1
17,9851816,ME,1
18,9852523,ME,1
19,9883376,ME,1
20,9709025,ME,2
21,9709037,ME,2
22,9760770,ME,2
23,9762261,ME,2
24,9762273,ME,2
25,9825427,ME,2
